Lab3/simulation/qsim/LogicalStep_Lab3.msim.vcd
$comment
	File created using the following command:
		vcd file LogicalStep_Lab3.msim.vcd -direction
$end
$date
	Tue Jun 20 12:23:24 2017
$end
$version
	ModelSim Version 10.4b
$end
$timescale
	1ps
$end

$scope module LogicalStep_Lab3_top_vlg_vec_tst $end
$var reg 1 ! clkin_50 $end
$var reg 4 " pb [3:0] $end
$var reg 8 # sw [7:0] $end
$var wire 1 $ leds [7] $end
$var wire 1 % leds [6] $end
$var wire 1 & leds [5] $end
$var wire 1 ' leds [4] $end
$var wire 1 ( leds [3] $end
$var wire 1 ) leds [2] $end
$var wire 1 * leds [1] $end
$var wire 1 + leds [0] $end
$var wire 1 , seg7_char1 $end
$var wire 1 - seg7_char2 $end
$var wire 1 . seg7_data [6] $end
$var wire 1 / seg7_data [5] $end
$var wire 1 0 seg7_data [4] $end
$var wire 1 1 seg7_data [3] $end
$var wire 1 2 seg7_data [2] $end
$var wire 1 3 seg7_data [1] $end
$var wire 1 4 seg7_data [0] $end

$scope module i1 $end
$var wire 1 5 gnd $end
$var wire 1 6 vcc $end
$var wire 1 7 unknown $end
$var tri1 1 8 devclrn $end
$var tri1 1 9 devpor $end
$var tri1 1 : devoe $end
$var wire 1 ; clkin_50~input_o $end
$var wire 1 < pb[0]~input_o $end
$var wire 1 = pb[1]~input_o $end
$var wire 1 > pb[2]~input_o $end
$var wire 1 ? pb[3]~input_o $end
$var wire 1 @ leds[0]~output_o $end
$var wire 1 A leds[1]~output_o $end
$var wire 1 B leds[2]~output_o $end
$var wire 1 C leds[3]~output_o $end
$var wire 1 D leds[4]~output_o $end
$var wire 1 E leds[5]~output_o $end
$var wire 1 F leds[6]~output_o $end
$var wire 1 G leds[7]~output_o $end
$var wire 1 H seg7_data[0]~output_o $end
$var wire 1 I seg7_data[1]~output_o $end
$var wire 1 J seg7_data[2]~output_o $end
$var wire 1 K seg7_data[3]~output_o $end
$var wire 1 L seg7_data[4]~output_o $end
$var wire 1 M seg7_data[5]~output_o $end
$var wire 1 N seg7_data[6]~output_o $end
$var wire 1 O seg7_char1~output_o $end
$var wire 1 P seg7_char2~output_o $end
$var wire 1 Q sw[3]~input_o $end
$var wire 1 R sw[6]~input_o $end
$var wire 1 S sw[2]~input_o $end
$var wire 1 T sw[5]~input_o $end
$var wire 1 U sw[4]~input_o $end
$var wire 1 V sw[0]~input_o $end
$var wire 1 W sw[1]~input_o $end
$var wire 1 X comp|bit4|compx1_mag[0]~2_combout $end
$var wire 1 Y comp|bit4|compx1_mag[1]~3_combout $end
$var wire 1 Z comp|bit4|compx1_mag[0]~4_combout $end
$var wire 1 [ sw[7]~input_o $end
$var wire 1 \ comp|bit4|compx1_mag[0]~7_combout $end
$var wire 1 ] comp|bit4|compx1_mag[0]~5_combout $end
$var wire 1 ^ comp|bit3|compx1_mag[1]~0_combout $end
$var wire 1 _ comp|bit4|compx1_mag[1]~6_combout $end
$var wire 1 ` leds~0_combout $end
$var wire 1 a leds~1_combout $end
$var wire 1 b leds~2_combout $end
$upscope $end
$upscope $end
$enddefinitions $end
#0
$dumpvars
x!
bx "
b1 #
1+
0*
0)
0(
0'
0&
0%
0$
0,
0-
04
03
02
01
00
0/
0.
05
16
x7
18
19
1:
x;
x<
x=
x>
x?
1@
0A
0B
0C
0D
0E
0F
0G
0H
0I
0J
0K
0L
0M
0N
0O
0P
0Q
0R
0S
0T
0U
1V
0W
0X
0Y
0Z
0[
0\
0]
0^
1_
0`
0a
0b
$end
#20000
b10001 #
1U
1Y
1X
0_
1\
1Z
1`
1]
0@
0+
1a
1A
1*
#40000
b110001 #
b100001 #
1T
0U
0Y
1_
0\
1b
0a
0A
1B
1)
0*
#60000
b110001 #
1U
#80000
b1110001 #
b1010001 #
b1000001 #
1R
0T
0U
1^
0X
#100000
b1010001 #
1U
1Y
1X
#120000
b1110001 #
b1100001 #
1T
0U
0Y
#140000
b1110001 #
1U
#160000
b11110001 #
b10110001 #
b10010001 #
b10000001 #
1[
0R
0T
0U
0^
0X
0Z
#180000
b10010001 #
1U
1Y
1X
1\
1Z
#200000
b10110001 #
b10100001 #
1T
0U
0Y
0\
#220000
b10110001 #
1U
#240000
b11110001 #
b11010001 #
b11000001 #
1R
0T
0U
1^
0X
#260000
b11010001 #
1U
1Y
1X
#280000
b11110001 #
b11100001 #
1T
0U
0Y
#300000
b11110001 #
1U
#320000
b1110001 #
b110001 #
b10001 #
b1 #
0[
0R
0T
0U
0^
0X
0Z
0]
0`
0b
0B
1@
1+
0)
#340000
b10001 #
1U
1Y
1X
0_
1\
1Z
1`
1]
0@
0+
1a
1A
1*
#360000
b110001 #
b100001 #
1T
0U
0Y
1_
0\
1b
0a
0A
1B
1)
0*
#380000
b110001 #
1U
#400000
b1110001 #
b1010001 #
b1000001 #
1R
0T
0U
1^
0X
#420000
b1010001 #
1U
1Y
1X
#440000
b1110001 #
b1100001 #
1T
0U
0Y
#460000
b1110001 #
1U
#480000
b11110001 #
b10110001 #
b10010001 #
b10000001 #
1[
0R
0T
0U
0^
0X
0Z
#500000
b10010001 #
1U
1Y
1X
1\
1Z
#520000
b10110001 #
b10100001 #
1T
0U
0Y
0\
#540000
b10110001 #
1U
#560000
b11110001 #
b11010001 #
b11000001 #
1R
0T
0U
1^
0X
#580000
b11010001 #
1U
1Y
1X
#600000
b11110001 #
b11100001 #
1T
0U
0Y
#620000
b11110001 #
1U
#640000
b1110001 #
b110001 #
b10001 #
b1 #
0[
0R
0T
0U
0^
0X
0Z
0]
0`
0b
0B
1@
1+
0)
#660000
b10001 #
1U
1Y
1X
0_
1\
1Z
1`
1]
0@
0+
1a
1A
1*
#680000
b110001 #
b100001 #
1T
0U
0Y
1_
0\
1b
0a
0A
1B
1)
0*
#700000
b110001 #
1U
#720000
b1110001 #
b1010001 #
b1000001 #
1R
0T
0U
1^
0X
#740000
b1010001 #
1U
1Y
1X
#760000
b1110001 #
b1100001 #
1T
0U
0Y
#780000
b1110001 #
1U
#800000
b11110001 #
b10110001 #
b10010001 #
b10000001 #
1[
0R
0T
0U
0^
0X
0Z
#820000
b10010001 #
1U
1Y
1X
1\
1Z
#840000
b10110001 #
b10100001 #
1T
0U
0Y
0\
#860000
b10110001 #
1U
#880000
b11110001 #
b11010001 #
b11000001 #
1R
0T
0U
1^
0X
#900000
b11010001 #
1U
1Y
1X
#920000
b11110001 #
b11100001 #
1T
0U
0Y
#940000
b11110001 #
1U
#960000
b1110001 #
b110001 #
b10001 #
b1 #
0[
0R
0T
0U
0^
0X
0Z
0]
0`
0b
0B
1@
1+
0)
#980000
b10001 #
1U
1Y
1X
0_
1\
1Z
1`
1]
0@
0+
1a
1A
1*
