Lab4/simulation/qsim/LogicalStep_Lab4.msim.vcd
$comment
	File created using the following command:
		vcd file LogicalStep_Lab4.msim.vcd -direction
$end
$date
	Wed Jul 05 11:56:47 2017
$end
$version
	ModelSim Version 10.4b
$end
$timescale
	1ps
$end

$scope module LogicalStep_Lab4_top_vlg_vec_tst $end
$var reg 1 ! clkin_50 $end
$var reg 4 " pb [3:0] $end
$var reg 1 # rst_n $end
$var reg 8 $ sw [7:0] $end
$var wire 1 % leds [7] $end
$var wire 1 & leds [6] $end
$var wire 1 ' leds [5] $end
$var wire 1 ( leds [4] $end
$var wire 1 ) leds [3] $end
$var wire 1 * leds [2] $end
$var wire 1 + leds [1] $end
$var wire 1 , leds [0] $end
$var wire 1 - seg7_char1 $end
$var wire 1 . seg7_char2 $end
$var wire 1 / seg7_data [6] $end
$var wire 1 0 seg7_data [5] $end
$var wire 1 1 seg7_data [4] $end
$var wire 1 2 seg7_data [3] $end
$var wire 1 3 seg7_data [2] $end
$var wire 1 4 seg7_data [1] $end
$var wire 1 5 seg7_data [0] $end

$scope module i1 $end
$var wire 1 6 gnd $end
$var wire 1 7 vcc $end
$var wire 1 8 unknown $end
$var tri1 1 9 devclrn $end
$var tri1 1 : devpor $end
$var tri1 1 ; devoe $end
$var wire 1 < pb[1]~input_o $end
$var wire 1 = pb[2]~input_o $end
$var wire 1 > pb[3]~input_o $end
$var wire 1 ? sw[4]~input_o $end
$var wire 1 @ sw[5]~input_o $end
$var wire 1 A sw[6]~input_o $end
$var wire 1 B sw[7]~input_o $end
$var wire 1 C ~QUARTUS_CREATED_GND~I_combout $end
$var wire 1 D ~QUARTUS_CREATED_UNVM~~busy $end
$var wire 1 E ~QUARTUS_CREATED_ADC1~~eoc $end
$var wire 1 F seg7_data[1]~output_o $end
$var wire 1 G seg7_data[5]~output_o $end
$var wire 1 H seg7_data[6]~output_o $end
$var wire 1 I leds[0]~output_o $end
$var wire 1 J leds[1]~output_o $end
$var wire 1 K leds[2]~output_o $end
$var wire 1 L leds[3]~output_o $end
$var wire 1 M leds[4]~output_o $end
$var wire 1 N leds[5]~output_o $end
$var wire 1 O leds[6]~output_o $end
$var wire 1 P leds[7]~output_o $end
$var wire 1 Q seg7_data[0]~output_o $end
$var wire 1 R seg7_data[2]~output_o $end
$var wire 1 S seg7_data[3]~output_o $end
$var wire 1 T seg7_data[4]~output_o $end
$var wire 1 U seg7_char1~output_o $end
$var wire 1 V seg7_char2~output_o $end
$var wire 1 W clkin_50~input_o $end
$var wire 1 X clkin_50~inputclkctrl_outclk $end
$var wire 1 Y sw[3]~input_o $end
$var wire 1 Z sw[2]~input_o $end
$var wire 1 [ state_machine|output[3]~0_combout $end
$var wire 1 \ state_machine|output[3]~2_combout $end
$var wire 1 ] state_machine|output[2]~4_combout $end
$var wire 1 ^ comp|bit3|compx1_mag[1]~0_combout $end
$var wire 1 _ sw[0]~input_o $end
$var wire 1 ` sw[1]~input_o $end
$var wire 1 a state_machine|output[0]~5_combout $end
$var wire 1 b state_machine|current_state.s15~7_combout $end
$var wire 1 c state_machine|output[1]~8_combout $end
$var wire 1 d state_machine|output[1]~9_combout $end
$var wire 1 e state_machine|output[1]~10_combout $end
$var wire 1 f state_machine|current_state.s15~3_combout $end
$var wire 1 g state_machine|current_state.s15~4_combout $end
$var wire 1 h state_machine|current_state.s15~5_combout $end
$var wire 1 i state_machine|current_state.s15~6_combout $end
$var wire 1 j rst_n~input_o $end
$var wire 1 k state_machine|current_state.s15~q $end
$var wire 1 l leds~2_combout $end
$var wire 1 m state_machine|Selector14~0_combout $end
$var wire 1 n state_machine|Selector14~1_combout $end
$var wire 1 o state_machine|current_state.S14~q $end
$var wire 1 p state_machine|Selector13~0_combout $end
$var wire 1 q state_machine|Selector13~1_combout $end
$var wire 1 r state_machine|current_state.S13~q $end
$var wire 1 s state_machine|Selector12~0_combout $end
$var wire 1 t state_machine|Selector12~1_combout $end
$var wire 1 u state_machine|current_state.S12~q $end
$var wire 1 v state_machine|output[0]~6_combout $end
$var wire 1 w state_machine|output[0]~7_combout $end
$var wire 1 x comp|bit4|compx1_mag~0_combout $end
$var wire 1 y comp|bit4|compx1_mag[1]~1_combout $end
$var wire 1 z state_machine|Selector10~0_combout $end
$var wire 1 { state_machine|Selector10~1_combout $end
$var wire 1 | state_machine|current_state.S10~q $end
$var wire 1 } state_machine|Selector9~0_combout $end
$var wire 1 ~ state_machine|Selector9~1_combout $end
$var wire 1 !! state_machine|current_state.S9~q $end
$var wire 1 "! state_machine|Selector8~0_combout $end
$var wire 1 #! state_machine|Selector8~1_combout $end
$var wire 1 $! state_machine|current_state.S8~q $end
$var wire 1 %! state_machine|Selector7~0_combout $end
$var wire 1 &! state_machine|Selector7~1_combout $end
$var wire 1 '! state_machine|current_state.S7~q $end
$var wire 1 (! state_machine|Selector6~0_combout $end
$var wire 1 )! state_machine|Selector6~1_combout $end
$var wire 1 *! state_machine|current_state.S6~q $end
$var wire 1 +! state_machine|Selector5~0_combout $end
$var wire 1 ,! state_machine|Selector5~1_combout $end
$var wire 1 -! state_machine|current_state.S5~q $end
$var wire 1 .! state_machine|Selector4~0_combout $end
$var wire 1 /! state_machine|Selector4~1_combout $end
$var wire 1 0! state_machine|current_state.S4~q $end
$var wire 1 1! state_machine|Selector3~0_combout $end
$var wire 1 2! state_machine|Selector3~1_combout $end
$var wire 1 3! state_machine|current_state.S3~q $end
$var wire 1 4! state_machine|Selector2~0_combout $end
$var wire 1 5! state_machine|Selector2~1_combout $end
$var wire 1 6! state_machine|current_state.S2~q $end
$var wire 1 7! state_machine|Selector1~0_combout $end
$var wire 1 8! state_machine|Selector1~1_combout $end
$var wire 1 9! state_machine|current_state.S1~q $end
$var wire 1 :! state_machine|Selector0~0_combout $end
$var wire 1 ;! state_machine|Selector0~1_combout $end
$var wire 1 <! state_machine|current_state.S0~q $end
$var wire 1 =! state_machine|output[0]~1_combout $end
$var wire 1 >! comp|bit4|compx1_mag~3_combout $end
$var wire 1 ?! comp|bit4|compx1_mag~2_combout $end
$var wire 1 @! state_machine|current_state.s15~2_combout $end
$var wire 1 A! leds~0_combout $end
$var wire 1 B! state_machine|Selector11~0_combout $end
$var wire 1 C! state_machine|Selector11~1_combout $end
$var wire 1 D! state_machine|current_state.S11~q $end
$var wire 1 E! state_machine|output[2]~3_combout $end
$var wire 1 F! state_machine|output[2]~11_combout $end
$var wire 1 G! left_decoder|Mux5~0_combout $end
$var wire 1 H! right_decoder|Mux5~0_combout $end
$var wire 1 I! output|clk_proc:COUNT[0]~0_combout $end
$var wire 1 J! output|clk_proc:COUNT[0]~q $end
$var wire 1 K! output|clk_proc:COUNT[1]~1_combout $end
$var wire 1 L! output|clk_proc:COUNT[1]~q $end
$var wire 1 M! output|clk_proc:COUNT[1]~2 $end
$var wire 1 N! output|clk_proc:COUNT[2]~1_combout $end
$var wire 1 O! output|clk_proc:COUNT[2]~q $end
$var wire 1 P! output|clk_proc:COUNT[2]~2 $end
$var wire 1 Q! output|clk_proc:COUNT[3]~1_combout $end
$var wire 1 R! output|clk_proc:COUNT[3]~q $end
$var wire 1 S! output|clk_proc:COUNT[3]~2 $end
$var wire 1 T! output|clk_proc:COUNT[4]~1_combout $end
$var wire 1 U! output|clk_proc:COUNT[4]~q $end
$var wire 1 V! output|clk_proc:COUNT[4]~2 $end
$var wire 1 W! output|clk_proc:COUNT[5]~1_combout $end
$var wire 1 X! output|clk_proc:COUNT[5]~q $end
$var wire 1 Y! output|clk_proc:COUNT[5]~2 $end
$var wire 1 Z! output|clk_proc:COUNT[6]~1_combout $end
$var wire 1 [! output|clk_proc:COUNT[6]~q $end
$var wire 1 \! output|clk_proc:COUNT[6]~2 $end
$var wire 1 ]! output|clk_proc:COUNT[7]~1_combout $end
$var wire 1 ^! output|clk_proc:COUNT[7]~q $end
$var wire 1 _! output|clk_proc:COUNT[7]~2 $end
$var wire 1 `! output|clk_proc:COUNT[8]~1_combout $end
$var wire 1 a! output|clk_proc:COUNT[8]~q $end
$var wire 1 b! output|clk_proc:COUNT[8]~2 $end
$var wire 1 c! output|clk_proc:COUNT[9]~1_combout $end
$var wire 1 d! output|clk_proc:COUNT[9]~q $end
$var wire 1 e! output|clk_proc:COUNT[9]~2 $end
$var wire 1 f! output|clk_proc:COUNT[10]~1_combout $end
$var wire 1 g! output|clk_proc:COUNT[10]~q $end
$var wire 1 h! output|DOUT_TEMP[1]~0_combout $end
$var wire 1 i! left_decoder|Mux1~0_combout $end
$var wire 1 j! right_decoder|Mux1~0_combout $end
$var wire 1 k! output|DOUT_TEMP[5]~1_combout $end
$var wire 1 l! right_decoder|Mux0~0_combout $end
$var wire 1 m! left_decoder|Mux0~0_combout $end
$var wire 1 n! output|DOUT_TEMP[6]~2_combout $end
$var wire 1 o! leds~1_combout $end
$var wire 1 p! pb[0]~input_o $end
$var wire 1 q! shift_register|current_state~1_combout $end
$var wire 1 r! shift_register|current_state~2_combout $end
$var wire 1 s! shift_register|current_state~3_combout $end
$var wire 1 t! shift_register|current_state~0_combout $end
$var wire 1 u! left_decoder|Mux6~0_combout $end
$var wire 1 v! right_decoder|Mux6~0_combout $end
$var wire 1 w! output|DOUT[0]~0_combout $end
$var wire 1 x! right_decoder|Mux4~0_combout $end
$var wire 1 y! left_decoder|Mux4~0_combout $end
$var wire 1 z! output|DOUT[2]~2_combout $end
$var wire 1 {! right_decoder|Mux3~0_combout $end
$var wire 1 |! left_decoder|Mux3~0_combout $end
$var wire 1 }! output|DOUT[3]~3_combout $end
$var wire 1 ~! left_decoder|Mux2~0_combout $end
$var wire 1 !" right_decoder|Mux2~0_combout $end
$var wire 1 "" output|DOUT[4]~4_combout $end
$var wire 1 #" shift_register|current_state [3] $end
$var wire 1 $" shift_register|current_state [2] $end
$var wire 1 %" shift_register|current_state [1] $end
$var wire 1 &" shift_register|current_state [0] $end
$upscope $end
$upscope $end
$enddefinitions $end
#0
$dumpvars
0!
bx "
0#
bx1111 $
0,
0+
1*
0)
1(
0'
0&
0%
0-
1.
15
04
03
02
11
z0
z/
06
17
x8
19
1:
1;
x<
x=
x>
x?
x@
xA
xB
0C
zD
zE
0F
zG
zH
0I
0J
1K
0L
1M
0N
0O
0P
1Q
0R
0S
1T
0U
1V
0W
0X
1Y
1Z
0[
1\
1]
0^
1_
1`
0a
1b
0c
1d
0e
1f
1g
1h
0i
0j
0k
0l
0m
0n
0o
0p
0q
0r
0s
0t
0u
1v
0w
0x
1y
0z
0{
0|
0}
0~
0!!
0"!
0#!
0$!
0%!
0&!
0'!
0(!
0)!
0*!
0+!
0,!
0-!
0.!
0/!
00!
01!
02!
03!
04!
05!
06!
17!
18!
09!
0:!
1;!
0<!
0=!
0>!
0?!
1@!
0A!
0B!
0C!
0D!
0E!
1F!
1G!
1H!
1I!
0J!
0K!
0L!
0M!
0N!
0O!
1P!
0Q!
0R!
0S!
0T!
0U!
1V!
0W!
0X!
0Y!
0Z!
0[!
1\!
0]!
0^!
0_!
0`!
0a!
1b!
0c!
0d!
0e!
0f!
0g!
0h!
1i!
0j!
1k!
1l!
1m!
1n!
0o!
xp!
xq!
0r!
xs!
1t!
1u!
0v!
1w!
1x!
1y!
0z!
1{!
0|!
1}!
0~!
0!"
0""
0&"
0%"
0$"
0#"
$end
#5000
1!
1W
1X
1L
1)
1J!
1K!
0I!
#10000
0!
0W
0X
0L
0)
#15000
1!
1W
1X
1L
1)
1L!
0J!
1I!
#20000
1#
0!
1j
0W
0X
0L
0)
#25000
1!
1W
1X
1L
1)
1&"
1J!
1<!
19!
x#"
x%"
xN
xP
0M
1M!
1=!
07!
1a
14!
1[
0(
x%
x'
0s!
0q!
0K!
0I!
xt!
xr!
1w
1N!
08!
15!
1~!
1|!
0u!
0i!
#30000
0!
0W
0X
0L
0)
#35000
1!
1W
1X
1L
1)
x&"
1O!
0L!
0J!
09!
16!
0#"
x$"
0%"
0N
xO
0P
xM
0P!
0M!
04!
1e
0a
0[
0=!
11!
x(
0%
x&
0'
xs!
xq!
0N!
1I!
1t!
0r!
1P!
0|!
1u!
0m!
1x
0f
0w
1Q!
1N!
05!
12!
0~!
0y!
0x
1f
0Q!
#40000
0!
0W
0X
0L
0)
#45000
1!
1W
1X
1L
1)
1&"
1J!
06!
13!
x#"
0$"
x%"
xN
0O
xP
0M
1=!
01!
1a
0]
1.!
1[
0(
x%
0&
x'
0s!
0q!
1K!
0I!
xt!
xr!
1w
02!
1/!
1~!
1y!
1x
0f
#50000
0!
0W
0X
0L
0)
#55000
1!
1W
1X
1L
1)
x&"
1L!
0J!
03!
10!
0#"
x$"
0%"
0N
xO
0P
xM
0F!
0.!
0b
0a
1^
0[
0=!
1+!
0d
x(
0%
x&
0'
xs!
xq!
1I!
1t!
0r!
1|!
1m!
0w
0e
0/!
1,!
0u!
0m!
1i!
0x
1f
#60000
0!
0W
0X
0L
0)
#65000
1!
1W
1X
1L
1)
1&"
1J!
00!
1-!
x#"
0$"
x%"
xN
0O
xP
0M
1M!
1=!
0+!
1d
1(!
1c
1[
0(
x%
0&
x'
0s!
0q!
0K!
0I!
xt!
xr!
0P!
1w
1e
0d
0N!
0,!
1)!
1u!
1m!
0i!
1x
0f
0e
1Q!
0|!
0m!
1i!
0G!
0x
1f
#70000
0!
0W
0X
0L
0)
#75000
1!
1W
1X
1L
1)
x&"
1R!
0O!
0L!
0J!
0-!
1*!
0#"
x$"
0%"
0N
xO
0P
xM
1S!
1P!
0M!
0(!
0c
0[
0=!
1%!
x(
0%
x&
0'
xs!
xq!
0Q!
1N!
1I!
1t!
0r!
0S!
1d
0w
1T!
1Q!
0N!
0)!
1&!
1e
1|!
0u!
1G!
0T!
0~!
0|!
1u!
0G!
#80000
0!
0W
0X
0L
0)
#85000
1!
1W
1X
1L
1)
1&"
1J!
0*!
1'!
x#"
0$"
x%"
xN
0O
xP
0M
1=!
0%!
1"!
1[
0(
x%
0&
x'
0s!
0q!
1K!
0I!
xt!
xr!
1w
0&!
1#!
1~!
1|!
1m!
0i!
1G!
1x
0f
#90000
0!
0W
0X
0L
0)
#95000
1!
1W
1X
1L
1)
x&"
1L!
0J!
0'!
1$!
0#"
x$"
0%"
0N
xO
0P
xM
0"!
0[
1E!
1}
0v
1c
x(
0%
x&
0'
xs!
xq!
1I!
1t!
0r!
0\
1F!
1b
0^
0w
0d
0#!
1~
0~!
0m!
1i!
0x
1f
0e
0|!
#100000
0!
0W
0X
0L
0)
#105000
1!
1W
1X
1L
1)
1&"
1J!
0$!
1!!
x#"
0$"
x%"
xN
0O
xP
0M
1M!
0}
1v
1z
0(
x%
0&
x'
0s!
0q!
0K!
0I!
xt!
xr!
1w
1N!
0~
1{
1~!
#110000
0!
0W
0X
0L
0)
#115000
1!
1W
1X
1L
1)
x&"
1O!
0L!
0J!
0!!
1|
0#"
x$"
0%"
0N
xO
0P
xM
0P!
0M!
0z
0c
1B!
0v
x(
0%
x&
0'
xs!
xq!
0N!
1I!
1t!
0r!
1S!
1P!
1d
0w
0Q!
1N!
0{
1C!
0S!
1e
0~!
1T!
1Q!
1|!
0T!
#120000
0!
0W
0X
0L
0)
#125000
1!
1W
1X
1L
1)
1&"
1J!
1D!
0|
x#"
0$"
x%"
xN
0O
xP
0M
0B!
1s
1v
0(
x%
0&
x'
0s!
0q!
1K!
0I!
xt!
xr!
1w
0C!
1t
0|!
0u!
0G!
1x
0f
#130000
0!
0W
0X
0L
0)
#135000
1!
1W
1X
1L
1)
x&"
1L!
0J!
0D!
1u
0#"
x$"
0%"
0N
xO
0P
xM
0E!
0s
0v
1p
1c
x(
0%
x&
0'
xs!
xq!
1I!
1t!
0r!
0F!
0b
1^
0w
0d
0t
1q
0y!
1u!
0g
0y
0x
1f
0e
1l
0h
1s
1y
1g
0u!
0i!
1o!
1J
0K
0s
0p
0l
1h
0*
1+
1t
0o!
0J
1K
1p
1*
0+
0t
0q
1q
#140000
0!
0W
0X
0L
0)
#145000
1!
1W
1X
1L
1)
1&"
1J!
0u
1r
x#"
0$"
x%"
xN
0O
xP
0M
1M!
1v
0p
0c
1m
0(
x%
0&
x'
0s!
0q!
0K!
0I!
xt!
xr!
0P!
1w
0N!
0q
1n
1S!
1y!
1G!
0Q!
1T!
#150000
0!
0W
0X
0L
0)
#155000
1!
1W
1X
1L
1)
x&"
1U!
0R!
0O!
0L!
0J!
0r
1o
0#"
x$"
0%"
0N
xO
0P
xM
0V!
0S!
1P!
0M!
0m
1d
0v
x(
0%
x&
0'
xs!
xq!
0T!
1Q!
1N!
1I!
1i
1t!
0r!
1V!
1e
0w
1W!
1T!
0Q!
0N!
0n
0y!
1u!
1i!
0G!
0W!
#160000
0!
0W
0X
0L
0)
#165000
1!
1W
1X
1L
1)
1&"
1J!
0o
1k
x#"
0$"
x%"
xN
0O
xP
0M
1v
0(
x%
0&
x'
0s!
0q!
1K!
0I!
xt!
xr!
1w
1|!
1x
0f
0y
0g
1l
0h
1o!
1J
0K
0*
1+
#170000
0!
0W
0X
0L
0)
#175000
1!
1W
1X
1L
1)
x&"
1L!
0J!
0#"
x$"
0%"
0N
xO
0P
xM
x(
0%
x&
0'
xs!
xq!
1I!
1t!
0r!
#180000
bx0111 $
bx0011 $
bx0001 $
bx0000 $
0!
0Y
0Z
0`
0_
0W
0X
0L
0{!
0x!
0l!
0H!
1?!
1>!
1y
0^
0x
0)
0}!
0@!
1z!
0n!
1h!
0o!
1A!
0i
1I
0J
zF
0H
1R
1S
12
13
0/
z4
0+
1,
1n
#185000
1!
1W
1X
1L
1)
1&"
1J!
1o
0k
x#"
0$"
x%"
xN
0O
xP
0M
1M!
0v
0(
x%
0&
x'
0s!
0q!
0K!
0I!
1q
0n
xt!
xr!
0w
1N!
0|!
#190000
0!
0W
0X
0L
0)
#195000
1!
1W
1X
1L
1)
x&"
1O!
0L!
0J!
1r
0o
0#"
x$"
0%"
0N
xO
0P
xM
0P!
0M!
0d
1v
x(
0%
x&
0'
xs!
xq!
0N!
1I!
1t
0q
1t!
0r!
1P!
0e
1w
1Q!
1N!
1y!
0u!
0i!
1G!
0Q!
#200000
0!
0W
0X
0L
0)
#205000
1!
1W
1X
1L
1)
1&"
1J!
1u
0r
x#"
0$"
x%"
xN
0O
xP
0M
0v
1c
1d
0(
x%
0&
x'
0s!
0q!
1K!
0I!
1C!
0t
xt!
xr!
0w
0d
1e
0y!
1u!
1i!
0G!
0e
0u!
0i!
1x
#210000
0!
0W
0X
0L
0)
#215000
1!
1W
1X
1L
1)
x&"
1L!
0J!
1D!
0u
0#"
x$"
0%"
0N
xO
0P
xM
1E!
1v
0c
x(
0%
x&
0'
xs!
xq!
1I!
1{
0C!
1t!
0r!
1F!
1^
1w
1d
1~!
1y!
1u!
1i!
1G!
0?!
1@!
0x
1e
0@!
0~!
0u!
0G!
#220000
0!
0W
0X
0L
0)
#225000
1!
1W
1X
1L
1)
1&"
1J!
0D!
1|
x#"
0$"
x%"
xN
0O
xP
0M
1M!
0v
0(
x%
0&
x'
0s!
0q!
0K!
0I!
0{
1~
xt!
xr!
0P!
0w
0N!
1|!
1u!
1G!
1Q!
#230000
0!
0W
0X
0L
0)
#235000
1!
1W
1X
1L
1)
x&"
1R!
0O!
0L!
0J!
1!!
0|
0#"
x$"
0%"
0N
xO
0P
xM
1S!
1P!
0M!
1c
1v
x(
0%
x&
0'
xs!
xq!
0Q!
1N!
1I!
1#!
0~
1t!
0r!
0V!
0S!
0d
1w
0T!
1Q!
0N!
1V!
0e
0|!
0u!
0G!
1W!
1T!
1~!
1u!
1G!
0W!
#240000
0!
0W
0X
0L
0)
#245000
1!
1W
1X
1L
1)
1&"
1J!
1$!
0!!
x#"
0$"
x%"
xN
0O
xP
0M
0v
0(
x%
0&
x'
0s!
0q!
1K!
0I!
1&!
0#!
xt!
xr!
0w
0~!
1x
1@!
#250000
0!
0W
0X
0L
0)
#255000
1!
1W
1X
1L
1)
x&"
1L!
0J!
1'!
0$!
0#"
x$"
0%"
0N
xO
0P
xM
1[
0E!
1v
0c
x(
0%
x&
0'
xs!
xq!
1I!
1)!
0&!
1t!
0r!
0>!
1\
0F!
0^
1w
1d
1~!
0G!
1?!
0x
1e
0@!
1|!
1m!
0i!
1G!
#260000
0!
0W
0X
0L
0)
#265000
1!
1W
1X
1L
1)
1&"
1J!
1*!
0'!
x#"
0$"
x%"
xN
0O
xP
0M
1M!
0=!
0[
0(
x%
0&
x'
0s!
0q!
0K!
0I!
1,!
0)!
xt!
xr!
0w
1N!
0~!
0|!
0m!
1i!
0G!
#270000
0!
0W
0X
0L
0)
#275000
1!
1W
1X
1L
1)
x&"
1O!
0L!
0J!
1-!
0*!
0#"
x$"
0%"
0N
xO
0P
xM
0P!
0M!
1c
1[
1=!
x(
0%
x&
0'
xs!
xq!
0N!
1I!
1/!
0,!
1t!
0r!
1S!
1P!
0d
1w
0Q!
1N!
0V!
0S!
0e
1~!
1|!
1m!
0i!
1G!
0T!
1Q!
1V!
0|!
0m!
1i!
0G!
1W!
1T!
0W!
#280000
0!
0W
0X
0L
0)
#285000
1!
1W
1X
1L
1)
1&"
1J!
10!
0-!
x#"
0$"
x%"
xN
0O
xP
0M
0=!
1d
0c
0[
0(
x%
0&
x'
0s!
0q!
1K!
0I!
12!
0/!
xt!
xr!
0w
1e
0d
0~!
0e
1~!
1|!
0u!
1G!
1x
1@!
#290000
0!
0W
0X
0L
0)
#295000
1!
1W
1X
1L
1)
x&"
1L!
0J!
13!
00!
0#"
x$"
0%"
0N
xO
0P
xM
1F!
1a
1^
1[
1=!
1d
x(
0%
x&
0'
xs!
xq!
1I!
15!
02!
1t!
0r!
0~!
0|!
1u!
1m!
0?!
1w
0y
1e
1~!
0m!
0i!
0x
11!
1o!
0A!
0I
1J
1y
1+
0,
12!
05!
01!
0o!
1A!
1I
0J
0+
1,
02!
15!
#300000
0!
0W
0X
0L
0)
#305000
1!
1W
1X
1L
1)
1&"
1J!
16!
03!
x#"
0$"
x%"
xN
0O
xP
0M
1M!
0=!
0a
1]
0F!
0^
0[
0(
x%
0&
x'
0s!
0q!
0K!
0I!
18!
05!
xt!
xr!
0P!
0w
1F!
1^
1|!
1m!
1?!
0N!
1S!
0~!
0|!
0y!
0m!
0?!
0@!
0Q!
0V!
1@!
0T!
1W!
#310000
0!
0W
0X
0L
0)
#315000
1!
1W
1X
1L
1)
x&"
1X!
0U!
0R!
0O!
0L!
0J!
19!
06!
0#"
x$"
0%"
0N
xO
0P
xM
1Y!
1V!
0S!
1P!
0M!
1:!
0e
1a
1[
1=!
x(
0%
x&
0'
xs!
xq!
0W!
1T!
1Q!
1N!
1I!
08!
1t!
0r!
0Y!
1y!
1m!
1i!
1x
1w
1Z!
1W!
0T!
0Q!
0N!
0;!
0y
1~!
1|!
0u!
0i!
0x
0Z!
17!
1y
1o!
0A!
0I
1J
07!
1+
0,
18!
0o!
1A!
1I
0J
0+
1,
08!
#320000
0!
0W
0X
0L
0)
#325000
1!
1W
1X
1L
1)
1&"
1J!
0<!
09!
x#"
0$"
x%"
xN
0O
xP
0M
0=!
0a
0[
0(
x%
0&
x'
0s!
0q!
1K!
0I!
xt!
xr!
0w
0~!
0|!
1u!
1i!
1x
0y
1o!
0A!
0I
1J
1+
0,
#330000
0!
0W
0X
0L
0)
#335000
1!
1W
1X
1L
1)
x&"
1L!
0J!
0#"
x$"
0%"
0N
xO
0P
xM
x(
0%
x&
0'
xs!
xq!
1I!
1t!
0r!
#340000
0!
0W
0X
0L
0)
#345000
1!
1W
1X
1L
1)
1&"
1J!
x#"
0$"
x%"
xN
0O
xP
0M
1M!
0(
x%
0&
x'
0s!
0q!
0K!
0I!
xt!
xr!
1N!
#350000
0!
0W
0X
0L
0)
#355000
1!
1W
1X
1L
1)
x&"
1O!
0L!
0J!
0#"
x$"
0%"
0N
xO
0P
xM
0P!
0M!
x(
0%
x&
0'
xs!
xq!
0N!
1I!
1t!
0r!
1P!
1Q!
1N!
0Q!
#360000
0!
0W
0X
0L
0)
#365000
1!
1W
1X
1L
1)
1&"
1J!
x#"
0$"
x%"
xN
0O
xP
0M
0(
x%
0&
x'
0s!
0q!
1K!
0I!
xt!
xr!
#370000
0!
0W
0X
0L
0)
#375000
1!
1W
1X
1L
1)
x&"
1L!
0J!
0#"
x$"
0%"
0N
xO
0P
xM
x(
0%
x&
0'
xs!
xq!
1I!
1t!
0r!
#380000
0!
0W
0X
0L
0)
#385000
1!
1W
1X
1L
1)
1&"
1J!
x#"
0$"
x%"
xN
0O
xP
0M
1M!
0(
x%
0&
x'
0s!
0q!
0K!
0I!
xt!
xr!
0P!
0N!
1Q!
#390000
0!
0W
0X
0L
0)
#395000
1!
1W
1X
1L
1)
x&"
1R!
0O!
0L!
0J!
0#"
x$"
0%"
0N
xO
0P
xM
1S!
1P!
0M!
x(
0%
x&
0'
xs!
xq!
0Q!
1N!
1I!
1t!
0r!
0S!
1T!
1Q!
0N!
0T!
#400000
0!
0W
0X
0L
0)
#405000
1!
1W
1X
1L
1)
1&"
1J!
x#"
0$"
x%"
xN
0O
xP
0M
0(
x%
0&
x'
0s!
0q!
1K!
0I!
xt!
xr!
#410000
0!
0W
0X
0L
0)
#415000
1!
1W
1X
1L
1)
x&"
1L!
0J!
0#"
x$"
0%"
0N
xO
0P
xM
x(
0%
x&
0'
xs!
xq!
1I!
1t!
0r!
#420000
0!
0W
0X
0L
0)
#425000
1!
1W
1X
1L
1)
1&"
1J!
x#"
0$"
x%"
xN
0O
xP
0M
1M!
0(
x%
0&
x'
0s!
0q!
0K!
0I!
xt!
xr!
1N!
#430000
0!
0W
0X
0L
0)
#435000
1!
1W
1X
1L
1)
x&"
1O!
0L!
0J!
0#"
x$"
0%"
0N
xO
0P
xM
0P!
0M!
x(
0%
x&
0'
xs!
xq!
0N!
1I!
1t!
0r!
1S!
1P!
0Q!
1N!
0S!
1T!
1Q!
0T!
#440000
0!
0W
0X
0L
0)
#445000
1!
1W
1X
1L
1)
1&"
1J!
x#"
0$"
x%"
xN
0O
xP
0M
0(
x%
0&
x'
0s!
0q!
1K!
0I!
xt!
xr!
#450000
0!
0W
0X
0L
0)
#455000
1!
1W
1X
1L
1)
x&"
1L!
0J!
0#"
x$"
0%"
0N
xO
0P
xM
x(
0%
x&
0'
xs!
xq!
1I!
1t!
0r!
#460000
0!
0W
0X
0L
0)
#465000
1!
1W
1X
1L
1)
1&"
1J!
x#"
0$"
x%"
xN
0O
xP
0M
1M!
0(
x%
0&
x'
0s!
0q!
0K!
0I!
xt!
xr!
0P!
0N!
1S!
0Q!
1T!
#470000
0!
0W
0X
0L
0)
#475000
1!
1W
1X
1L
1)
x&"
1U!
0R!
0O!
0L!
0J!
0#"
x$"
0%"
0N
xO
0P
xM
0V!
0S!
1P!
0M!
x(
0%
x&
0'
xs!
xq!
0T!
1Q!
1N!
1I!
1t!
0r!
1Y!
1V!
0W!
1T!
0Q!
0N!
0Y!
1Z!
1W!
0Z!
#480000
0!
0W
0X
0L
0)
#485000
1!
1W
1X
1L
1)
1&"
1J!
x#"
0$"
x%"
xN
0O
xP
0M
0(
x%
0&
x'
0s!
0q!
1K!
0I!
xt!
xr!
#490000
0!
0W
0X
0L
0)
#495000
1!
1W
1X
1L
1)
x&"
1L!
0J!
0#"
x$"
0%"
0N
xO
0P
xM
x(
0%
x&
0'
xs!
xq!
1I!
1t!
0r!
#500000
0!
0W
0X
0L
0)
#505000
1!
1W
1X
1L
1)
1&"
1J!
x#"
0$"
x%"
xN
0O
xP
0M
1M!
0(
x%
0&
x'
0s!
0q!
0K!
0I!
xt!
xr!
1N!
#510000
0!
0W
0X
0L
0)
#515000
1!
1W
1X
1L
1)
x&"
1O!
0L!
0J!
0#"
x$"
0%"
0N
xO
0P
xM
0P!
0M!
x(
0%
x&
0'
xs!
xq!
0N!
1I!
1t!
0r!
1P!
1Q!
1N!
0Q!
#520000
0!
0W
0X
0L
0)
#525000
1!
1W
1X
1L
1)
1&"
1J!
x#"
0$"
x%"
xN
0O
xP
0M
0(
x%
0&
x'
0s!
0q!
1K!
0I!
xt!
xr!
#530000
0!
0W
0X
0L
0)
#535000
1!
1W
1X
1L
1)
x&"
1L!
0J!
0#"
x$"
0%"
0N
xO
0P
xM
x(
0%
x&
0'
xs!
xq!
1I!
1t!
0r!
#540000
0!
0W
0X
0L
0)
#545000
1!
1W
1X
1L
1)
1&"
1J!
x#"
0$"
x%"
xN
0O
xP
0M
1M!
0(
x%
0&
x'
0s!
0q!
0K!
0I!
xt!
xr!
0P!
0N!
1Q!
#550000
bx1000 $
bx1100 $
bx1110 $
bx1111 $
0!
1Y
1Z
1`
1_
0W
0X
0L
1{!
1x!
1l!
1H!
1y
1g
1b
0^
0:!
0x
1f
0)
1;!
1}!
0l
1h
0z!
1n!
0h!
0o!
0J
0F
zH
0R
1K
0S
17!
02
1*
03
z/
04
0+
18!
#555000
1!
1W
1X
1L
1)
x&"
1R!
0O!
0L!
0J!
1<!
19!
0#"
x$"
0%"
0N
xO
0P
xM
1S!
1P!
0M!
1=!
07!
1a
14!
1[
x(
0%
x&
0'
xs!
xq!
0Q!
1N!
1I!
1t!
0r!
0V!
0S!
1w
0T!
1Q!
0N!
08!
15!
1Y!
1V!
1~!
1|!
0u!
0i!
0W!
1T!
0Y!
1Z!
1W!
0Z!
#560000
0!
0W
0X
0L
0)
#565000
1!
1W
1X
1L
1)
1&"
1J!
09!
16!
x#"
0$"
x%"
xN
0O
xP
0M
04!
1e
0a
0[
0=!
11!
0(
x%
0&
x'
0s!
0q!
1K!
0I!
xt!
xr!
0|!
1u!
0m!
1x
0f
0w
05!
12!
0~!
0y!
0x
1f
#570000
0!
0W
0X
0L
0)
